{
  "Welcome to Travel Explore": "Welcome to Travel Explore",
  "Plan your trip quick and easy with us": "Plan your trip quick and easy with us.",
  "Select Language":"Select Language",
  "Let us know?":"Let us know?",
  "English": "English",
  "French": "Français",
  "Spanish": "Español",
  "Please enter your Name to agree on wearing mask and sanitizing your hands for your travel?": "Please enter your Name to agree on wearing mask and sanitizing your hands for your travel?",
  "Submit": "Submit",
  "Thank you for choosing Yoda's Travel": "Thank you for choosing Yoda's Travel",
  "We need you to agree for the Covid-19 saftey measures": "We need you to agree for the Covid-19 saftey measures",
  "Covid-19 Alert Consent": "Covid-19 Alert Consent",
  "Back": "Back",
  "Information on safety during covid-19!!": "Information on safety during covid-19!!",
  "Our Services": "Our Services",
  "Services": "Services",
  "Train.": "Train.",
  "Bus.":"Bus.",
  "Flight.": "Flight."
}