{
  "Welcome to Travel Explore": "Bienvenue dans Travel Explore",
  "Plan your trip quick and easy with us": "Planifiez votre voyage rapidement et facilement avec nous.",
  "Select Language":"Choisir la langue",
  "Let us know?": "Faites le nous savoir?",
  "French": "Français",
  "Spanish": "Español",
  "English": "English",
  "Please enter your Name to agree on wearing mask and sanitizing your hands for your travel?": "Veuillez entrer votre nom pour accepter de porter un masque et de vous désinfecter les mains pour votre voyage?",
  "Submit": "Soumettre",
  "Thank you for choosing Yoda's Travel": "Merci d'avoir choisi Yoda's Travel",
  "We need you to agree for the Covid-19 saftey measures": "Nous avons besoin que vous acceptiez les mesures de sécurité Covid-19",
  "Covid-19 Alert Consent": "Consentement aux alertes Covid-19",
  "Back": "Retour",
  "Information on safety during covid-19!!": "Informations sur la sécurité pendant covid-19 !!",
  "Our Services": "Nos services",
  "Services": "Services",
  "Train.": "Train.",
  "Bus.":"Autobus.",
  "Flight.": "Vol.",
  "TRIP DETAILS": "DÉTAILS DU VOYAGE",
  "2 Days and 1 Night Camping": "Camping 2 jours et 1 nuit",
  "DATE OF TRAVEL": "DATE DE VOYAGE",
  "15 Nov 2020 at 8:30 AM" : "15 nov.2020 à 8h30",
  "TOTAL AMOUNT": "MONTANT TOTAL",
  "Booking starts from 28 Oct 2020":"Réservation à partir du 28 oct.2020",
  "For more information on Data Tables": "Pour plus d'informations sur les tableaux de données",
  "Gredient Chips button": "Bouton Puces Gredient",
  "Services for travel offered by the company": "Services de voyage proposés par l'entreprise"
}
